peptide_level_visualization
…
 [1] "Spec_id"                 "Base.Peptide.Sequence"  
 [3] "log2.16O.18O.Ratio"      "cent.log2.16O.18O.Ratio"
 [5] "SampleID"                "Index"                  
 [7] "Cruise"                  "Station"                
 [9] "Isotope"                 "Replicate"              
[11] "Time"                    "Depth"                  
[13] "SpectrumID"              "ScanID"                 
[15] "Target."                 "Decoy."                 
[17] "Peptide_id"             

df_srf <- df_pep %>% filter(Depth == 'SRF') %>% select(Peptide_id, SampleID, Time, Depth) %>% unique() %>% arrange(Peptide_id)
# How many time points did it appear
(df_srf2 <- df_srf %>% group_by(Peptide_id) %>% summarize(Timepoints = n_distinct(Time)) %>% ungroup())

# A tibble: 2,081 x 2
   Peptide_id Timepoints
 * <chr>           <int>
 1 Pep_1               8
 2 Pep_10              8
 3 Pep_100             8
 4 Pep_1001            5
 5 Pep_1003            4
 6 Pep_1005            4
 7 Pep_1006            4
 8 Pep_1007            5
 9 Pep_1008            4
10 Pep_1009            4
# ... with 2,071 more rows
…
  # theme(panel.grid.major = element_blank())
  # theme(panel.grid.minor = element_blank())

# Let's try to plot all of them at once
df_all <- df_pep %>% select(Peptide_id, SampleID, Time, Depth) %>% unique() %>% arrange(Peptide_id)
# How many time points did it appear
(df_all2 <- df_all %>% group_by(Peptide_id, Depth) %>% summarize(Timepoints = n_distinct(Time)) %>% ungroup())

# A tibble: 6,104 x 3
   Peptide_id Depth Timepoints
   <chr>      <chr>      <int>
 1 Pep_1      BDCL           8
 2 Pep_1      DCL            8
 3 Pep_1      SRF            8
 4 Pep_10     BDCL           8
 5 Pep_10     DCL            8
 6 Pep_10     SRF            8
 7 Pep_100    BDCL           8
 8 Pep_100    DCL            8
 9 Pep_100    SRF            8
10 Pep_1000   BDCL           5
# ... with 6,094 more rows
…
