taxonomy_assignment_and_analysis
…
0. Get the rhythmic(periodic) peptide_ids from the rain analysis (from previous script of “peptide_level_visualization.Rmd”)

# read in combined table of 24 samples (Replicate B)
df_pep <- read.table("Replicate_ABC67_combined.tsv",sep='\t',header = T)
# Let's try to plot all of them at once
df_all <- df_pep %>% select(Peptide_id, SampleID, Time, Depth) %>% unique() %>% arrange(Peptide_id)
# How many time points did it appear
(df_all2 <- df_all %>% group_by(Peptide_id, Depth) %>% summarize(Timepoints = n_distinct(Time)) %>% ungroup())

# A tibble: 6,104 x 3
   Peptide_id Depth Timepoints
   <chr>      <chr>      <int>
 1 Pep_1      BDCL           8
 2 Pep_1      DCL            8
 3 Pep_1      SRF            8
 4 Pep_10     BDCL           8
 5 Pep_10     DCL            8
 6 Pep_10     SRF            8
 7 Pep_100    BDCL           8
 8 Pep_100    DCL            8
 9 Pep_100    SRF            8
10 Pep_1000   BDCL           1
# ... with 6,094 more rows
…
